AE12/HW 08 - Data Splitting and Overfitting
…
characters <- left_join(characters, tot_lines, by = "episode")

characters <- characters |>
  mutate(percentage = (num_lines / tot_lines) * 100) |>
  select(episode, season, character, percentage) |>
  filter(character %in% c("Pam", "Michael", "Dwight", "Jim")) 

characters_wide <- characters |>
  pivot_wider(names_from = character, values_from = percentage)

characters_wide

# A tibble: 186 × 6
# Groups:   episode, season [186]
   episode season Dwight   Jim Michael   Pam
     <int>  <int>  <dbl> <dbl>   <dbl> <dbl>
 1       1      1  1.10  1.36     3.06 1.55 
 2       1      2  1.21  1.21     3.63 1.55 
 3       1      3  0.681 0.416    1.93 0.227
 4       1      4  2.04  1.89     4.92 3.06 
 5       1      5  1.85  2.38     4.35 1.36 
 6       1      6  0.757 1.59     3.59 1.02 
 7       1      7  0.795 0.832    2.19 0.946
 8       1      8  1.06  1.25    NA    0.870
 9       1      9  1.59  0.795   NA    0.719
10       2      1  0.891 1.31     3.93 0.629
# ℹ 176 more rows
…
office_df <- theoffice %>%
  select(season, episode, episode_name, imdb_rating, total_votes, air_date) %>%
  distinct(season, episode, .keep_all = TRUE) %>%
  left_join(halloween_epi, by = "episode_name") %>% 
  left_join(valentine_epi, by = "episode_name") %>% 
  left_join(christmas_epi, by = "episode_name") %>% 
  replace_na(list(halloween = 0, valentine = 0, christmas = 0)) %>%
  mutate(michael = if_else(season > 7, 0, 1)) %>%
  mutate(
    across(halloween:michael, as.factor)) %>%
  left_join(characters, by = c("season", "episode"))

office_df

# A tibble: 690 × 12
   season episode episode_name  imdb_rating total_votes air_date   halloween
    <int>   <int> <chr>               <dbl>       <int> <date>     <fct>    
 1      1       1 Pilot                 7.6        3706 2005-03-24 0        
 2      1       1 Pilot                 7.6        3706 2005-03-24 0        
 3      1       1 Pilot                 7.6        3706 2005-03-24 0        
 4      1       1 Pilot                 7.6        3706 2005-03-24 0        
 5      1       2 Diversity Day         8.3        3566 2005-03-29 0        
 6      1       2 Diversity Day         8.3        3566 2005-03-29 0        
 7      1       2 Diversity Day         8.3        3566 2005-03-29 0        
 8      1       2 Diversity Day         8.3        3566 2005-03-29 0        
 9      1       3 Health Care           7.9        2983 2005-04-05 0        
10      1       3 Health Care           7.9        2983 2005-04-05 0        
# ℹ 680 more rows
# ℹ 5 more variables: valentine <fct>, christmas <fct>, michael <fct>,
#   character <chr>, percentage <dbl>
…
